Scaffold60936	Scaffold106663	?	Scaffold103769	-1	scaffold_1	6975776	7266945
Scaffold117519	Scaffold224940	?	Scaffold205155	-1	scaffold_1	7745625	7928076
Scaffold181364	Scaffold275767	-1	Scaffold1579	1	scaffold_1	8639499	9142337
Scaffold20871	Scaffold12677	1	Scaffold286793	-1	scaffold_1	9247392	9693808
Scaffold110327	Scaffold8333	1	Scaffold274215	1	scaffold_1	11015421	11405706
Scaffold23975	Scaffold43119	-1	Scaffold19872	-1	scaffold_1	12047717	12623942
Scaffold25734	Scaffold269347	?	Scaffold50801	1	scaffold_1	12942911	13339178
Scaffold45250	Scaffold78568	1	Scaffold136932	?	scaffold_1	14232610	15370023
Scaffold43675	Scaffold136932	?	Scaffold6806	-1	scaffold_1	14898951	16044482
Scaffold24959	Scaffold15345	?	Scaffold88924	1	scaffold_1	16015743	16335754
Scaffold88906	Scaffold21515	-1	Scaffold205596	1	scaffold_1	16539902	17315494
Scaffold61902	Scaffold17977	?	Scaffold23966	1	scaffold_1	17428345	17874480
Scaffold23966	Scaffold53221	1	Scaffold127626	?	scaffold_1	17697817	17874480
Scaffold34236	Scaffold28772	1	Scaffold55392	1	scaffold_1	18250583	19253715
Scaffold4377	Scaffold124697	?	Scaffold12384	?	scaffold_1	20278787	20527927
Scaffold1991	Scaffold111819	-1	Scaffold146114	1	scaffold_1	25144336	26551447
Scaffold25843	Scaffold144185	?	Scaffold7125	-1	scaffold_1	32703943	33728229
Scaffold8582	Scaffold20063	?	Scaffold55348	?	scaffold_1	38488570	39839029
Scaffold25246	Scaffold30953	1	Scaffold514	-1	scaffold_1	43398750	45369118
Scaffold25071	Scaffold514	-1	Scaffold17408	?	scaffold_1	43464357	45586950
Scaffold17408	Scaffold25071	-1	Scaffold149873	-1	scaffold_1	44065538	45621678
Scaffold31772	Scaffold30824	?	Scaffold854	1	scaffold_1	51044127	53691263
Scaffold854	Scaffold39196	1	Scaffold52961	1	scaffold_1	52925849	54351107
Scaffold52961	Scaffold6366	?	Scaffold72111	1	scaffold_1	53711715	54492520
Scaffold21219	Scaffold77854	-1	Scaffold13445	-1	scaffold_1	54702930	57988903
Scaffold13445	Scaffold38530	?	Scaffold5392	-1	scaffold_1	57475442	57988903
Scaffold31279	Scaffold123049	-1	Scaffold141511	1	scaffold_1	61341166	61711416
Scaffold12970	Scaffold29514	?	Scaffold54597	-1	scaffold_1	61748977	62813033
Scaffold54597	Scaffold138163	?	Scaffold11153	-1	scaffold_1	62132366	64430939
Scaffold11153	Scaffold138747	-1	Scaffold159342	?	scaffold_1	63118877	63756254
Scaffold5731	Scaffold5664	?	Scaffold10070	1	scaffold_1	66476142	66623359
Scaffold372353	Scaffold17568	-1	Scaffold69619	1	scaffold_1	66665659	66919662
Scaffold12297	Scaffold160799	1	Scaffold97139	1	scaffold_1	67968995	68399505
Scaffold2430	Scaffold203723	?	Scaffold245351	?	scaffold_1	74762194	74840119
Scaffold70515	Scaffold77280	1	Scaffold266174	?	scaffold_1	80871685	81236404
Scaffold125397	Scaffold26457	-1	Scaffold86713	1	scaffold_1	81843523	82049093
Scaffold7304	Scaffold18250	1	Scaffold78981	?	scaffold_1	85617290	85791534
Scaffold12053	Scaffold97580	?	Scaffold44774	1	scaffold_1	89817657	90384219
Scaffold94144	Scaffold238714	?	Scaffold81807	?	scaffold_1	91558382	92022449
Scaffold48383	Scaffold41228	-1	Scaffold64455	-1	scaffold_1	92442988	93743909
Scaffold64455	Scaffold196057	?	Scaffold25451	?	scaffold_1	93203614	93570406
Scaffold8594	Scaffold1963	-1	Scaffold109050	1	scaffold_1	95983422	97042797
Scaffold105945	Scaffold28602	-1	Scaffold9461	1	scaffold_1	97814095	98786906
Scaffold9461	Scaffold4303	?	Scaffold13352	?	scaffold_1	98308487	98786906
Scaffold15619	Scaffold355172	1	Scaffold41074	1	scaffold_1	101248184	102136559
Scaffold3053	Scaffold101332	?	Scaffold7676	-1	scaffold_1	104129293	105360796
Scaffold7676	Scaffold54445	?	Scaffold31520	-1	scaffold_1	104719312	105781494
Scaffold16806	Scaffold55993	?	Scaffold14412	?	scaffold_1	108195035	108833417
Scaffold20304	Scaffold40277	-1	Scaffold50669	-1	scaffold_1	121049793	121374529
Scaffold41940	Scaffold275379	1	Scaffold63659	1	scaffold_1	123208317	123415132
Scaffold10022	Scaffold45459	1	Scaffold105121	?	scaffold_1	123589709	124036746
Scaffold84939	Scaffold137177	?	Scaffold30127	1	scaffold_1	124350745	125082702
Scaffold30127	Scaffold34764	-1	Scaffold7025	-1	scaffold_1	124566950	125353991
Scaffold37617	Scaffold43572	1	Scaffold40089	-1	scaffold_1	125484265	125767108
Scaffold88605	Scaffold190122	-1	Scaffold62037	-1	scaffold_1	130011414	130434587
Scaffold62037	Scaffold179411	?	Scaffold285945	1	scaffold_1	130262838	130462744
Scaffold14044	Scaffold16794	?	Scaffold103945	-1	scaffold_1	131759531	131952149
Scaffold5319	Scaffold164051	?	Scaffold7780	?	scaffold_1	132177936	132396544
Scaffold15548	Scaffold298189	?	Scaffold40123	?	scaffold_1	134197962	134394883
Scaffold57543	Scaffold62186	1	Scaffold32185	1	scaffold_1	135711125	135883069
Scaffold51862	Scaffold26471	?	Scaffold200532	?	scaffold_1	143290203	143331322
Scaffold57308	Scaffold379343	?	Scaffold7749	1	scaffold_1	148242465	148914649
Scaffold3110	Scaffold36173	?	Scaffold81557	1	scaffold_1	149448780	150032054
Scaffold604	Scaffold218252	-1	Scaffold34959	1	scaffold_1	151024489	151391812
Scaffold244028	Scaffold10823	?	Scaffold121549	1	scaffold_1	154590445	155007865
Scaffold23702	Scaffold121549	1	Scaffold622	?	scaffold_1	154791311	155099997
Scaffold43610	Scaffold59537	?	Scaffold135934	-1	scaffold_1	159009595	159944182
Scaffold3607	Scaffold60073	1	Scaffold79612	?	scaffold_1	160578047	160891756
Scaffold131	Scaffold40786	?	Scaffold4087	-1	scaffold_1	162555985	164795471
Scaffold31571	Scaffold4087	-1	Scaffold31053	?	scaffold_1	163510848	165322757
Scaffold76621	Scaffold142643	-1	Scaffold169720	-1	scaffold_1	165402097	165665535
Scaffold53961	Scaffold48352	-1	Scaffold106050	1	scaffold_1	166072782	167271547
Scaffold1943	Scaffold475916	?	Scaffold45932	-1	scaffold_1	168968302	170032843
Scaffold14674	Scaffold45932	-1	Scaffold9255	-1	scaffold_1	169127289	171063701
Scaffold9255	Scaffold14674	1	Scaffold109199	1	scaffold_1	169958558	171063701
Scaffold25221	Scaffold21936	1	Scaffold22646	-1	scaffold_1	173141029	173793809
Scaffold3975	Scaffold1535	-1	Scaffold34576	1	scaffold_1	173951788	175363245
Scaffold50312	Scaffold15866	?	Scaffold43478	-1	scaffold_1	175717334	176397327
Scaffold47083	Scaffold307965	1	Scaffold57866	-1	scaffold_1	182915642	184171745
Scaffold9100	Scaffold57866	-1	Scaffold11405	1	scaffold_1	183412977	185844714
Scaffold11405	Scaffold47378	1	Scaffold10310	1	scaffold_1	184667698	186222463
Scaffold77121	Scaffold61334	?	Scaffold65921	1	scaffold_1	197079610	197768802
Scaffold54095	Scaffold244811	-1	Scaffold27799	-1	scaffold_1	198121582	198526268
Scaffold17059	Scaffold23446	?	Scaffold48508	?	scaffold_1	204346488	204699684
Scaffold2137	Scaffold14293	?	Scaffold147883	?	scaffold_1	205780614	205976225
Scaffold4623	Scaffold147350	-1	Scaffold174259	1	scaffold_10	2114938	2494847
Scaffold130950	Scaffold136083	?	Scaffold76478	1	scaffold_10	2740567	3473762
Scaffold76478	Scaffold190109	-1	Scaffold4517	1	scaffold_10	2967949	4179661
Scaffold6039	Scaffold402705	?	Scaffold30858	1	scaffold_10	4184120	4709650
Scaffold30858	Scaffold49963	?	Scaffold85286	-1	scaffold_10	4288733	4914345
Scaffold85286	Scaffold124466	1	Scaffold5060	1	scaffold_10	4736758	5659319
Scaffold5060	Scaffold394987	?	Scaffold113336	-1	scaffold_10	4926500	5548717
Scaffold24211	Scaffold35061	-1	Scaffold16318	-1	scaffold_10	8272147	8413566
Scaffold9963	Scaffold53150	1	Scaffold1843	?	scaffold_10	9001098	9085048
Scaffold114184	Scaffold11534	?	Scaffold81517	1	scaffold_10	9396618	9757058
Scaffold116970	Scaffold186588	-1	Scaffold36752	1	scaffold_10	9807493	10233701
Scaffold56502	Scaffold179940	?	Scaffold170701	?	scaffold_10	11891406	12047439
Scaffold82180	Scaffold208339	1	Scaffold7087	?	scaffold_110	181691	364469
Scaffold25588	Scaffold33856	?	Scaffold354608	?	scaffold_18	866587	898282
Scaffold10736	Scaffold34220	1	Scaffold31612	-1	scaffold_2	695120	1568649
Scaffold1302	Scaffold108093	?	Scaffold101411	-1	scaffold_2	4715094	5257459
Scaffold36880	Scaffold1513	-1	Scaffold120719	-1	scaffold_2	5813314	6347364
Scaffold19223	Scaffold8685	?	Scaffold14556	1	scaffold_2	11090364	13419836
Scaffold14556	Scaffold79174	1	Scaffold47765	-1	scaffold_2	12832268	13419836
Scaffold38379	Scaffold2896	1	Scaffold412218	-1	scaffold_2	13436087	14281563
Scaffold51856	Scaffold209579	?	Scaffold34333	-1	scaffold_2	22377413	22739428
Scaffold81976	Scaffold34333	-1	Scaffold151048	?	scaffold_2	22472637	22818002
Scaffold26196	Scaffold397203	?	Scaffold159293	?	scaffold_2	25144659	25202563
Scaffold34536	Scaffold24690	-1	Scaffold13969	-1	scaffold_2	29878893	31741793
Scaffold996	Scaffold29603	1	Scaffold270765	1	scaffold_2	36587298	37336648
Scaffold66070	Scaffold3827	?	Scaffold82733	1	scaffold_2	38727046	39742522
Scaffold8695	Scaffold110681	?	Scaffold28924	?	scaffold_2	39789268	40395101
Scaffold24681	Scaffold56366	?	Scaffold21678	1	scaffold_2	42648070	43132435
Scaffold31780	Scaffold21678	1	Scaffold185533	1	scaffold_2	42837287	43500205
Scaffold15789	Scaffold83070	?	Scaffold46515	?	scaffold_2	45222372	45309869
Scaffold66297	Scaffold67844	?	Scaffold38803	1	scaffold_2	51247522	51738594
Scaffold30456	Scaffold319172	1	Scaffold14456	-1	scaffold_2	52783236	53049199
Scaffold199576	Scaffold73394	1	Scaffold270307	?	scaffold_2	53629060	54245244
Scaffold52731	Scaffold46827	-1	Scaffold21930	1	scaffold_2	54664583	55149971
Scaffold5788	Scaffold17582	?	Scaffold55551	-1	scaffold_2	55596834	55866692
Scaffold57913	Scaffold56824	-1	Scaffold28570	?	scaffold_2	56238446	56378825
Scaffold34809	Scaffold21340	1	Scaffold65341	-1	scaffold_2	57898578	58723270
Scaffold14960	Scaffold249714	1	Scaffold51115	1	scaffold_2	59703592	59799655
Scaffold688	Scaffold54431	-1	Scaffold67489	-1	scaffold_2	59913762	60663478
Scaffold21408	Scaffold26149	1	Scaffold149711	-1	scaffold_2	62136134	62978959
Scaffold149711	Scaffold70235	-1	Scaffold92196	-1	scaffold_2	62849450	63038850
Scaffold87235	Scaffold18961	?	Scaffold10384	1	scaffold_2	67488537	68909567
Scaffold10384	Scaffold24943	?	Scaffold3084	1	scaffold_2	68639633	68909567
Scaffold5690	Scaffold210585	?	Scaffold41449	?	scaffold_2	71275870	71686280
Scaffold69297	Scaffold67721	1	Scaffold15971	-1	scaffold_2	73868660	74520911
Scaffold22198	Scaffold127686	?	Scaffold33411	1	scaffold_2	74709937	75599088
Scaffold33411	Scaffold61161	-1	Scaffold7337	-1	scaffold_2	75477141	77305631
Scaffold7337	Scaffold76655	-1	Scaffold1755	1	scaffold_2	75891110	77372186
Scaffold417454	Scaffold98606	1	Scaffold64656	-1	scaffold_2	77776115	78321375
Scaffold84763	Scaffold460831	?	Scaffold50984	1	scaffold_2	80408990	81073098
Scaffold60915	Scaffold50984	1	Scaffold43355	1	scaffold_2	80510540	81625888
Scaffold43355	Scaffold60915	1	Scaffold24529	-1	scaffold_2	80648142	81528550
Scaffold17525	Scaffold150804	?	Scaffold34506	?	scaffold_2	83296262	83644705
Scaffold273220	Scaffold4066	-1	Scaffold31414	1	scaffold_2	84131983	85130443
Scaffold31414	Scaffold103204	-1	Scaffold3828	-1	scaffold_2	84761019	85308969
Scaffold79291	Scaffold184121	-1	Scaffold60964	-1	scaffold_2	86824989	87129506
Scaffold3254	Scaffold46271	-1	Scaffold17020	-1	scaffold_2	90314935	91633369
Scaffold17020	Scaffold210856	1	Scaffold55748	1	scaffold_2	91140627	91755858
Scaffold18871	Scaffold35270	1	Scaffold28180	-1	scaffold_2	91796999	94008883
Scaffold1526	Scaffold36554	1	Scaffold24485	?	scaffold_2	95534394	95743614
Scaffold52114	Scaffold11326	?	Scaffold25252	-1	scaffold_2	98080489	99170855
Scaffold13328	Scaffold11818	?	Scaffold4461	1	scaffold_2	104260619	105726453
Scaffold1807	Scaffold33325	1	Scaffold44618	1	scaffold_2	106323655	106892863
Scaffold783	Scaffold84906	?	Scaffold2493	1	scaffold_2	114074229	115507451
Scaffold6845	Scaffold271	?	Scaffold9171	?	scaffold_2	118908863	119083355
Scaffold22688	Scaffold124842	1	Scaffold7814	?	scaffold_2	120253209	120765717
Scaffold10339	Scaffold228498	?	Scaffold112626	?	scaffold_2	126264449	126717441
Scaffold18528	Scaffold93252	?	Scaffold423942	-1	scaffold_2	127183492	127814841
Scaffold61268	Scaffold268825	?	Scaffold87692	?	scaffold_2	133471340	133519879
Scaffold2467	Scaffold25323	?	Scaffold42799	?	scaffold_2	134366230	134728792
Scaffold25519	Scaffold25447	?	Scaffold8993	-1	scaffold_2	139759564	140541104
Scaffold8993	Scaffold84108	?	Scaffold82604	?	scaffold_2	140366923	140468811
Scaffold7820	Scaffold16066	-1	Scaffold114957	1	scaffold_2	143238762	144056851
Scaffold55479	Scaffold493467	?	Scaffold63093	1	scaffold_24	931118	1070421
Scaffold63093	Scaffold55479	-1	Scaffold128278	?	scaffold_24	984350	1070421
Scaffold264367	Scaffold377508	?	Scaffold170203	-1	scaffold_26	151311	209453
Scaffold614	Scaffold218073	1	Scaffold9542	1	scaffold_26	270751	699839
Scaffold3996	Scaffold11623	-1	Scaffold34214	-1	scaffold_3	705063	797737
Scaffold19113	Scaffold6254	1	Scaffold53188	-1	scaffold_3	6519065	7038158
Scaffold483	Scaffold343073	-1	Scaffold62530	?	scaffold_3	7240696	7467645
Scaffold5354	Scaffold296482	-1	Scaffold14766	1	scaffold_3	7500484	8249014
Scaffold221489	Scaffold14766	1	Scaffold138697	1	scaffold_3	7618879	8504031
Scaffold475978	Scaffold229260	?	Scaffold17485	1	scaffold_3	9709018	10025846
Scaffold17485	Scaffold40586	?	Scaffold13757	-1	scaffold_3	9780321	10140591
Scaffold44	Scaffold13757	-1	Scaffold19242	-1	scaffold_3	9943152	11086643
Scaffold8777	Scaffold37362	-1	Scaffold25286	-1	scaffold_3	11460426	12609816
Scaffold25286	Scaffold8777	1	Scaffold96546	1	scaffold_3	11500841	12609816
Scaffold19665	Scaffold131262	-1	Scaffold16771	-1	scaffold_3	16754118	17811150
Scaffold10522	Scaffold109076	1	Scaffold32042	-1	scaffold_3	23274721	24262983
Scaffold1623	Scaffold8016	1	Scaffold113840	-1	scaffold_3	25795965	27980616
Scaffold40949	Scaffold222990	-1	Scaffold49287	1	scaffold_3	28474251	30163728
Scaffold49287	Scaffold40949	1	Scaffold8291	?	scaffold_3	28562566	30163728
Scaffold61378	Scaffold154896	-1	Scaffold101390	?	scaffold_3	30855535	31500374
Scaffold35448	Scaffold49201	1	Scaffold9288	-1	scaffold_3	32419509	33429072
Scaffold9288	Scaffold35448	1	Scaffold10512	-1	scaffold_3	32892248	33406403
Scaffold74300	Scaffold44288	?	Scaffold234092	-1	scaffold_3	50710244	51164398
Scaffold210150	Scaffold469938	?	Scaffold36756	-1	scaffold_3	54042754	54240960
Scaffold30118	Scaffold174799	?	Scaffold10627	1	scaffold_3	59088180	61281295
Scaffold1376	Scaffold10627	1	Scaffold27044	?	scaffold_3	59128584	61466121
Scaffold115912	Scaffold202617	?	Scaffold45339	-1	scaffold_3	63122165	63300815
Scaffold24096	Scaffold105364	1	Scaffold12421	1	scaffold_3	67530205	68184599
Scaffold1835	Scaffold3251	?	Scaffold23952	1	scaffold_3	71016575	72862455
Scaffold3427	Scaffold105419	1	Scaffold31624	1	scaffold_3	77886173	78201619
Scaffold29097	Scaffold37045	1	Scaffold115926	?	scaffold_3	78567004	79557919
Scaffold37217	Scaffold23504	?	Scaffold339280	?	scaffold_3	81126437	81244347
Scaffold3909	Scaffold73470	?	Scaffold47125	-1	scaffold_3	83738091	84544291
Scaffold173922	Scaffold47125	-1	Scaffold17487	1	scaffold_3	83870363	86822540
Scaffold17487	Scaffold4934	-1	Scaffold2758	1	scaffold_3	85679401	86822540
Scaffold3885	Scaffold59057	?	Scaffold18965	1	scaffold_3	93741359	94765854
Scaffold10809	Scaffold202277	?	Scaffold30331	1	scaffold_3	94938600	96021017
Scaffold42443	Scaffold98074	-1	Scaffold30962	-1	scaffold_3	112207138	112975183
Scaffold135	Scaffold3230	1	Scaffold60596	-1	scaffold_4	8983016	10095135
Scaffold13395	Scaffold13326	?	Scaffold81960	?	scaffold_4	10164302	10202617
Scaffold56330	Scaffold10846	-1	Scaffold6670	-1	scaffold_4	20103747	20789488
Scaffold58972	Scaffold190387	?	Scaffold409432	?	scaffold_4	24079598	24117983
Scaffold60148	Scaffold214514	?	Scaffold8576	-1	scaffold_4	42919808	43850641
Scaffold8576	Scaffold22928	-1	Scaffold21244	1	scaffold_4	43403363	44099511
Scaffold123548	Scaffold79943	?	Scaffold33235	?	scaffold_4	46852794	47403739
Scaffold47849	Scaffold59480	-1	Scaffold100102	1	scaffold_4	51515155	52096957
Scaffold14139	Scaffold18860	-1	Scaffold14879	1	scaffold_4	68173900	69650085
Scaffold104815	Scaffold41273	?	Scaffold177991	?	scaffold_4	73724070	74347291
Scaffold43883	Scaffold38867	1	Scaffold33053	-1	scaffold_4	74372908	76051843
Scaffold15098	Scaffold85359	-1	Scaffold31041	1	scaffold_4	76219461	77011876
Scaffold2977	Scaffold10352	1	Scaffold2730	1	scaffold_4	78321154	80954546
Scaffold2730	Scaffold65344	1	Scaffold3490	-1	scaffold_4	80332294	80843891
Scaffold143786	Scaffold28049	-1	Scaffold4967	-1	scaffold_4	83075638	83668788
Scaffold4967	Scaffold143786	-1	Scaffold52429	-1	scaffold_4	83276789	84049314
Scaffold52429	Scaffold4967	-1	Scaffold48790	1	scaffold_4	83313910	84732445
Scaffold48790	Scaffold52429	-1	Scaffold68107	-1	scaffold_4	83514396	85130733
Scaffold68107	Scaffold273147	-1	Scaffold18666	?	scaffold_4	84826222	85130733
Scaffold4273	Scaffold51099	1	Scaffold71387	1	scaffold_4	85372897	86157495
Scaffold7827	Scaffold219540	1	Scaffold84223	1	scaffold_4	90976847	91510680
Scaffold72157	Scaffold13363	-1	Scaffold77610	-1	scaffold_4	94198855	95691821
Scaffold7629	Scaffold26854	-1	Scaffold21729	1	scaffold_4	96199229	96754711
Scaffold16742	Scaffold10126	1	Scaffold39681	-1	scaffold_4	98411200	99979460
Scaffold2436	Scaffold11677	-1	Scaffold81215	-1	scaffold_4	100813713	102406673
Scaffold81215	Scaffold2436	1	Scaffold50315	1	scaffold_4	101240480	102406673
Scaffold14253	Scaffold81299	?	Scaffold47878	-1	scaffold_4	104735172	105983210
Scaffold23850	Scaffold18791	-1	Scaffold6621	-1	scaffold_4	109420906	110829936
Scaffold50186	Scaffold34650	1	Scaffold33208	-1	scaffold_4	112316252	113717592
Scaffold74544	Scaffold12072	1	Scaffold186275	?	scaffold_4	116388664	116952409
Scaffold17423	Scaffold40078	-1	Scaffold25528	1	scaffold_4	120142980	121339112
Scaffold25528	Scaffold34960	1	Scaffold82464	-1	scaffold_4	120834876	121913765
Scaffold182521	Scaffold355169	?	Scaffold117755	?	scaffold_4	123443870	123540529
Scaffold15292	Scaffold212514	-1	Scaffold101426	-1	scaffold_4	124566587	125772010
Scaffold101426	Scaffold15292	?	Scaffold48854	?	scaffold_4	124848772	125772010
Scaffold71473	Scaffold19938	-1	Scaffold118048	1	scaffold_4	126723235	126960524
Scaffold87580	Scaffold100820	?	Scaffold135488	?	scaffold_4	129207165	129255808
Scaffold20901	Scaffold26293	?	Scaffold17448	1	scaffold_4	129737298	130409780
Scaffold23650	Scaffold12575	1	Scaffold90112	?	scaffold_4	130674491	130945814
Scaffold40029	Scaffold267782	?	Scaffold39582	?	scaffold_4	137521327	137631615
Scaffold11687	Scaffold16842	1	Scaffold17435	1	scaffold_42	56147	788017
Scaffold52080	Scaffold64718	-1	Scaffold191701	?	scaffold_5	8889443	9608871
Scaffold16944	Scaffold190484	?	Scaffold153454	?	scaffold_5	11777237	12688467
Scaffold40884	Scaffold18336	?	Scaffold92090	1	scaffold_5	13137428	13375775
Scaffold31951	Scaffold45162	-1	Scaffold138415	1	scaffold_5	15214674	16038698
Scaffold11132	Scaffold271302	1	Scaffold15864	1	scaffold_5	16360900	17424817
Scaffold68581	Scaffold6067	1	Scaffold26462	1	scaffold_5	18794535	20094448
Scaffold17094	Scaffold43221	-1	Scaffold39230	?	scaffold_5	23475796	24660733
Scaffold42910	Scaffold124223	1	Scaffold58707	-1	scaffold_5	28825236	29731438
Scaffold58938	Scaffold109283	1	Scaffold35570	1	scaffold_5	30245401	30863952
Scaffold35570	Scaffold58938	-1	Scaffold100041	?	scaffold_5	30343694	30863952
Scaffold52205	Scaffold53	1	Scaffold27367	1	scaffold_5	32329026	32827959
Scaffold1583	Scaffold80061	?	Scaffold169999	?	scaffold_5	36404373	37324493
Scaffold40340	Scaffold33934	-1	Scaffold268254	-1	scaffold_5	41073755	42095065
Scaffold268254	Scaffold8394	-1	Scaffold35877	?	scaffold_5	41693369	42095065
Scaffold45794	Scaffold11967	?	Scaffold386	1	scaffold_5	44541472	44771124
Scaffold32494	Scaffold32272	1	Scaffold49847	?	scaffold_5	45593733	46013702
Scaffold79692	Scaffold18738	?	Scaffold3482	1	scaffold_5	47524920	48185114
Scaffold11060	Scaffold9435	1	Scaffold9064	1	scaffold_5	48840528	49226251
Scaffold3454	Scaffold149915	?	Scaffold999	-1	scaffold_5	52752630	52823609
Scaffold10963	Scaffold54816	-1	Scaffold105410	?	scaffold_5	53608006	54242133
Scaffold4488	Scaffold21135	?	Scaffold11506	?	scaffold_5	69043531	69138611
Scaffold20128	Scaffold58788	?	Scaffold76744	?	scaffold_5	70949043	70999951
Scaffold57531	Scaffold78370	?	Scaffold74148	?	scaffold_5	72053579	72101743
Scaffold30173	Scaffold29274	1	Scaffold326675	?	scaffold_5	73323563	73654516
Scaffold55629	Scaffold20305	1	Scaffold10189	1	scaffold_5	73688680	74310594
Scaffold10189	Scaffold55629	1	Scaffold136612	?	scaffold_5	73863998	74318808
Scaffold45758	Scaffold83894	?	Scaffold22340	-1	scaffold_5	74620974	75182416
Scaffold74383	Scaffold21149	1	Scaffold401589	?	scaffold_5	75247894	75575667
Scaffold5529	Scaffold48524	?	Scaffold139912	?	scaffold_5	75843721	76147688
Scaffold35501	Scaffold7562	?	Scaffold35733	-1	scaffold_5	83221338	84068634
Scaffold107950	Scaffold46628	?	Scaffold125390	-1	scaffold_5	85469633	86107641
Scaffold11377	Scaffold69835	1	Scaffold185219	?	scaffold_5	89788287	90386167
Scaffold42667	Scaffold205156	?	Scaffold142757	-1	scaffold_5	90591984	91563128
Scaffold91076	Scaffold17168	-1	Scaffold99258	1	scaffold_5	93251198	94860832
Scaffold22998	Scaffold70297	-1	Scaffold25377	-1	scaffold_5	94901717	96913600
Scaffold153176	Scaffold433095	?	Scaffold12341	-1	scaffold_5	109180611	109848882
Scaffold4175	Scaffold15287	-1	Scaffold148215	-1	scaffold_5	111802448	112371844
Scaffold241097	Scaffold175049	1	Scaffold23613	1	scaffold_53	59149	174118
Scaffold7049	Scaffold169064	?	Scaffold117835	-1	scaffold_5b	1271702	1349674
Scaffold11090	Scaffold63469	?	Scaffold10936	1	scaffold_5b	4832477	4922710
Scaffold81582	Scaffold10218	-1	Scaffold82459	-1	scaffold_6	5363943	6048949
Scaffold15704	Scaffold32107	?	Scaffold30333	?	scaffold_6	7772108	7855261
Scaffold44491	Scaffold89417	?	Scaffold26302	-1	scaffold_6	10919471	11872190
Scaffold26302	Scaffold473632	-1	Scaffold12698	?	scaffold_6	11649300	11838458
Scaffold23356	Scaffold16043	-1	Scaffold14977	1	scaffold_6	17391010	18589902
Scaffold15259	Scaffold57315	1	Scaffold12881	-1	scaffold_6	19305993	20545662
Scaffold23185	Scaffold296847	1	Scaffold8138	1	scaffold_6	22019348	23113528
Scaffold8138	Scaffold19716	?	Scaffold10995	-1	scaffold_6	22842647	24374929
Scaffold10995	Scaffold32153	-1	Scaffold321	1	scaffold_6	23175837	25943365
Scaffold321	Scaffold27832	1	Scaffold143577	-1	scaffold_6	24503875	26083459
Scaffold154531	Scaffold4757	1	Scaffold43129	?	scaffold_6	26993872	27332653
Scaffold23357	Scaffold85183	?	Scaffold34437	-1	scaffold_6	27875280	28641285
Scaffold134579	Scaffold34437	-1	Scaffold16410	1	scaffold_6	27998784	29790436
Scaffold16410	Scaffold95262	1	Scaffold87111	1	scaffold_6	28978889	29385065
Scaffold19881	Scaffold45868	1	Scaffold214335	-1	scaffold_6	30752605	31032938
Scaffold7113	Scaffold9669	-1	Scaffold42744	-1	scaffold_6	32336807	33487765
Scaffold42744	Scaffold40465	?	Scaffold7420	1	scaffold_6	32861787	33707780
Scaffold6728	Scaffold7420	1	Scaffold11106	1	scaffold_6	33204947	35438673
Scaffold11106	Scaffold13506	1	Scaffold11685	-1	scaffold_6	34794163	35438673
Scaffold169892	Scaffold286217	?	Scaffold51112	1	scaffold_6	36216175	37406124
Scaffold51112	Scaffold19126	?	Scaffold29013	?	scaffold_6	36952527	37406124
Scaffold79134	Scaffold3972	?	Scaffold40511	-1	scaffold_6	37628533	38346670
Scaffold40511	Scaffold66795	1	Scaffold79253	1	scaffold_6	37859816	38871254
Scaffold10497	Scaffold35676	1	Scaffold69767	-1	scaffold_6	40356466	43097715
Scaffold69767	Scaffold10497	1	Scaffold5326	-1	scaffold_6	41311966	43716781
Scaffold5326	Scaffold69767	-1	Scaffold92791	-1	scaffold_6	42082696	43887368
Scaffold92791	Scaffold5326	-1	Scaffold177480	-1	scaffold_6	42763960	44158665
Scaffold177480	Scaffold92791	-1	Scaffold53850	1	scaffold_6	43576185	45087283
Scaffold53850	Scaffold177480	-1	Scaffold59471	-1	scaffold_6	43869755	45522238
Scaffold59471	Scaffold53850	1	Scaffold73717	1	scaffold_6	44115467	45572362
Scaffold25525	Scaffold212583	-1	Scaffold10181	-1	scaffold_6	46387745	47774963
Scaffold10181	Scaffold27552	1	Scaffold16671	1	scaffold_6	47124179	48772398
Scaffold16671	Scaffold35214	?	Scaffold44927	-1	scaffold_6	47898392	48772398
Scaffold36008	Scaffold17220	-1	Scaffold476156	1	scaffold_6	50255853	50838014
Scaffold18750	Scaffold149759	?	Scaffold219526	?	scaffold_6	52580854	52976092
Scaffold4789	Scaffold56432	?	Scaffold41883	-1	scaffold_6	55961757	56216233
Scaffold37916	Scaffold15327	1	Scaffold1603	1	scaffold_6	56722131	57866490
Scaffold1603	Scaffold36510	1	Scaffold11904	1	scaffold_6	57416186	57866490
Scaffold66840	Scaffold64430	-1	Scaffold4950	1	scaffold_6	58493974	58964005
Scaffold30377	Scaffold65620	1	Scaffold283213	-1	scaffold_6	60017920	60725704
Scaffold28844	Scaffold158335	-1	Scaffold45379	-1	scaffold_6	62903723	64450697
Scaffold45379	Scaffold28844	-1	Scaffold192424	?	scaffold_6	63370684	63818061
Scaffold13203	Scaffold172861	?	Scaffold49034	1	scaffold_6	80101767	80783721
Scaffold8892	Scaffold118483	?	Scaffold124751	?	scaffold_6	85539947	85852721
Scaffold3220	Scaffold84311	?	Scaffold73406	1	scaffold_6	91182846	91490444
Scaffold241314	Scaffold108954	?	Scaffold6050	?	scaffold_6	92007409	92393190
Scaffold18147	Scaffold2014	1	Scaffold70555	-1	scaffold_6	93073208	94176353
Scaffold70555	Scaffold16823	1	Scaffold24287	1	scaffold_6	93782654	94429904
Scaffold24287	Scaffold17297	1	Scaffold232095	?	scaffold_6	94182585	94408611
Scaffold32152	Scaffold44873	?	Scaffold1051	1	scaffold_6	95533544	96018831
Scaffold2934	Scaffold2680	1	Scaffold45133	1	scaffold_6	96471502	97457071
Scaffold9857	Scaffold12088	1	Scaffold118440	1	scaffold_6	97518974	99118778
Scaffold14577	Scaffold1471	?	Scaffold32766	?	scaffold_6	101005399	101295606
Scaffold4244	Scaffold27627	1	Scaffold10835	-1	scaffold_6	102498925	103530655
Scaffold28624	Scaffold81277	1	Scaffold79194	?	scaffold_6	104000121	104485292
Scaffold48146	Scaffold438379	?	Scaffold100947	1	scaffold_6	106398218	107160058
Scaffold7375	Scaffold100947	1	Scaffold51041	-1	scaffold_6	106597912	107808596
Scaffold51041	Scaffold7375	1	Scaffold100851	?	scaffold_6	107157628	107808596
Scaffold141088	Scaffold11211	1	Scaffold89527	-1	scaffold_6	107920397	109021279
Scaffold20843	Scaffold89527	-1	Scaffold3618	-1	scaffold_6	108298002	110138946
Scaffold3618	Scaffold20843	1	Scaffold15343	1	scaffold_6	108975816	109929299
Scaffold11734	Scaffold142053	1	Scaffold42321	?	scaffold_6	113628544	114216467
Scaffold99039	Scaffold134079	-1	Scaffold12246	1	scaffold_6	118262374	119114427
Scaffold18689	Scaffold12246	1	Scaffold243447	?	scaffold_6	118416751	119635945
Scaffold26581	Scaffold104215	-1	Scaffold53125	1	scaffold_6	119727391	121770201
Scaffold53125	Scaffold26581	1	Scaffold1089	1	scaffold_6	120362287	122036729
Scaffold1652	Scaffold27168	1	Scaffold16456	?	scaffold_6	131841380	132529684
Scaffold79203	Scaffold139109	-1	Scaffold42197	1	scaffold_6	137032184	137724212
Scaffold10884	Scaffold7600	?	Scaffold28168	1	scaffold_6	138291253	138784617
Scaffold3322	Scaffold40250	1	Scaffold61759	-1	scaffold_6	139679223	140527818
Scaffold126724	Scaffold22307	?	Scaffold28105	1	scaffold_7	5731056	5903265
Scaffold7423	Scaffold3299	?	Scaffold203298	?	scaffold_7	6225657	6317782
Scaffold83368	Scaffold198444	?	Scaffold46144	1	scaffold_7	10748965	11222549
Scaffold30233	Scaffold57176	1	Scaffold139833	1	scaffold_7	23626977	23966572
Scaffold27689	Scaffold22721	?	Scaffold267567	-1	scaffold_7	24067867	24357963
Scaffold49251	Scaffold104774	?	Scaffold43638	-1	scaffold_7	24574662	24849787
Scaffold43811	Scaffold35715	-1	Scaffold441424	1	scaffold_7	25326936	25781233
Scaffold302879	Scaffold191916	-1	Scaffold75233	1	scaffold_7	27421109	27681199
Scaffold35749	Scaffold57409	1	Scaffold908	1	scaffold_7	33013755	33786507
Scaffold908	Scaffold62946	-1	Scaffold99707	?	scaffold_7	33549695	33786507
Scaffold14133	Scaffold20299	1	Scaffold48269	-1	scaffold_7	34879405	35180555
Scaffold87369	Scaffold71118	1	Scaffold144686	?	scaffold_7	40419159	41613642
Scaffold96356	Scaffold485689	?	Scaffold473500	1	scaffold_7	43455158	43638628
Scaffold48418	Scaffold49311	?	Scaffold204094	-1	scaffold_7	45143230	45299399
Scaffold35265	Scaffold64172	?	Scaffold54755	?	scaffold_7	47038514	47223164
Scaffold1747	Scaffold198780	?	Scaffold17129	?	scaffold_7	57378650	57596892
Scaffold57628	Scaffold278882	-1	Scaffold236676	?	scaffold_7	62182768	62319559
Scaffold86289	Scaffold135261	-1	Scaffold360101	?	scaffold_7	69518001	70074896
Scaffold563	Scaffold4540	-1	Scaffold4762	1	scaffold_7	71104913	71895794
Scaffold4762	Scaffold563	?	Scaffold252312	1	scaffold_7	71213857	71870192
Scaffold37215	Scaffold11053	?	Scaffold67895	?	scaffold_7	73887563	74076351
Scaffold2527	Scaffold93070	-1	Scaffold1903	?	scaffold_7	80159191	80243705
Scaffold23425	Scaffold27889	-1	Scaffold151439	-1	scaffold_7	82198159	83317815
Scaffold4621	Scaffold11362	-1	Scaffold81201	1	scaffold_7	85636476	86314995
Scaffold47085	Scaffold59029	1	Scaffold156414	?	scaffold_7	87100726	87670657
Scaffold26113	Scaffold19554	?	Scaffold148414	1	scaffold_7	91574867	91953982
Scaffold7148	Scaffold41051	-1	Scaffold18634	1	scaffold_7	94517934	96828795
Scaffold59335	Scaffold93475	-1	Scaffold165690	-1	scaffold_7	100715945	101461834
Scaffold79475	Scaffold51784	?	Scaffold122011	-1	scaffold_7	102058101	102362472
Scaffold59015	Scaffold489766	?	Scaffold7964	1	scaffold_7	103976809	104398510
Scaffold137647	Scaffold80641	?	Scaffold81227	-1	scaffold_7	109949667	110284285
Scaffold1642	Scaffold235193	-1	Scaffold9070	?	scaffold_7	111952249	111991567
Scaffold94885	Scaffold136526	?	Scaffold10791	-1	scaffold_7	113256262	114108814
Scaffold10791	Scaffold388037	?	Scaffold89728	-1	scaffold_7	114003265	114062675
Scaffold3305	Scaffold34524	1	Scaffold159590	1	scaffold_7	123553695	124008672
Scaffold11492	Scaffold159590	1	Scaffold38349	?	scaffold_7	123888927	124102037
Scaffold8961	Scaffold4346	1	Scaffold226965	?	scaffold_8	7952685	7959280
Scaffold9232	Scaffold438168	1	Scaffold220128	1	scaffold_8	11040789	11238515
Scaffold3287	Scaffold386706	?	Scaffold1902	-1	scaffold_8	12980333	13386886
Scaffold1902	Scaffold17426	?	Scaffold713	?	scaffold_8	13118614	13368382
Scaffold139871	Scaffold54367	?	Scaffold932	-1	scaffold_8	20811878	21215469
Scaffold942	Scaffold77235	?	Scaffold170349	?	scaffold_8	25222094	25410542
Scaffold71612	Scaffold15410	?	Scaffold33147	-1	scaffold_8	27880489	28252352
Scaffold31977	Scaffold27666	?	Scaffold224501	?	scaffold_8	29053647	29218182
Scaffold29161	Scaffold21633	?	Scaffold64307	1	scaffold_8	30924800	32240106
Scaffold64307	Scaffold40999	1	Scaffold20424	1	scaffold_8	31706783	33696276
Scaffold40374	Scaffold20424	1	Scaffold9202	?	scaffold_8	32000819	34274021
Scaffold280902	Scaffold11208	1	Scaffold2105	?	scaffold_8	35499160	35611352
Scaffold4521	Scaffold239273	?	Scaffold27199	?	scaffold_8	40792747	40830887
Scaffold32930	Scaffold25248	?	Scaffold3043	?	scaffold_8	46540141	46602484
Scaffold3948	Scaffold3830	?	Scaffold90019	?	scaffold_8	50749980	50934826
Scaffold23293	Scaffold29928	-1	Scaffold141823	?	scaffold_8	57192017	57270351
Scaffold15968	Scaffold113222	?	Scaffold91225	1	scaffold_8	60756700	61537076
Scaffold9139	Scaffold123589	-1	Scaffold54263	?	scaffold_8	67111905	68114308
Scaffold43924	Scaffold30156	-1	Scaffold49250	-1	scaffold_8	69600384	70258995
Scaffold4416	Scaffold66394	-1	Scaffold11280	1	scaffold_8	72348575	72840805
Scaffold38577	Scaffold138674	?	Scaffold247162	?	scaffold_8	80400623	80974124
Scaffold537	Scaffold36697	1	Scaffold17680	-1	scaffold_8	86012969	87342215
Scaffold14147	Scaffold16891	1	Scaffold54634	?	scaffold_8	90610333	92385213
Scaffold102080	Scaffold147484	-1	Scaffold9990	-1	scaffold_8	92802178	93223478
Scaffold9990	Scaffold108411	-1	Scaffold77258	?	scaffold_8	93017677	93223478
Scaffold36533	Scaffold231836	-1	Scaffold58363	-1	scaffold_8	105594742	106056249
Scaffold85558	Scaffold64078	-1	Scaffold93074	?	scaffold_8b	1252456	1278781
Scaffold53584	Scaffold74917	?	Scaffold30080	1	scaffold_8c	1698271	1925894
Scaffold9298	Scaffold3616	-1	Scaffold198952	?	scaffold_8c	2533396	2769229
Scaffold172718	Scaffold685	1	Scaffold253149	?	scaffold_8c	4472308	4615157
Scaffold67649	Scaffold7639	-1	Scaffold35768	1	scaffold_9	3468740	5982702
Scaffold35768	Scaffold67649	1	Scaffold23207	?	scaffold_9	3637323	5982702
Scaffold36661	Scaffold5825	-1	Scaffold45232	?	scaffold_9	9787287	9956165
Scaffold65827	Scaffold50307	?	Scaffold46637	1	scaffold_9	11471391	13046019
Scaffold40168	Scaffold41270	?	Scaffold107432	?	scaffold_9	25478319	26081873
Scaffold25950	Scaffold40292	-1	Scaffold23252	1	scaffold_9	30118285	30846884
Scaffold24562	Scaffold94566	1	Scaffold67845	1	scaffold_9	34236426	35163860
Scaffold47047	Scaffold172093	-1	Scaffold179580	-1	scaffold_9	35242593	35826161
Scaffold4012	Scaffold14399	1	Scaffold378219	?	scaffold_9	36368211	37730268
Scaffold46866	Scaffold45112	1	Scaffold20788	1	scaffold_9	46658539	47550697
Scaffold6721	Scaffold113527	-1	Scaffold100770	?	scaffold_9	58064956	58336369
Scaffold4829	Scaffold51693	?	Scaffold157944	?	scaffold_9	63125270	64122519
Scaffold41633	Scaffold74999	1	Scaffold215656	-1	scaffold_9	66244251	66646958
Scaffold15775	Scaffold10533	1	Scaffold107064	1	scaffold_9	69243830	71279473
Scaffold107064	Scaffold15775	1	Scaffold17710	1	scaffold_9	69346136	71370868
Scaffold5856	Scaffold199	1	Scaffold923	-1	scaffold_9	74192341	75450649
Scaffold35325	Scaffold192469	?	Scaffold273	-1	scaffold_9	77052976	79417771
Scaffold273	Scaffold60256	1	Scaffold27567	-1	scaffold_9	77259654	79860669
Scaffold27567	Scaffold60256	1	Scaffold20965	-1	scaffold_9	77259654	80196137
Scaffold20965	Scaffold27567	-1	Scaffold92241	1	scaffold_9	78170818	80196137
Scaffold18957	Scaffold22228	1	Scaffold222908	1	scaffold_9	82446413	83058244
Scaffold10696	Scaffold191989	?	Scaffold2067	?	scaffold_9	83459560	83618311
Scaffold59044	Scaffold85549	-1	Scaffold97356	1	scaffold_9	86730101	87017730
Scaffold6494	Scaffold69734	-1	Scaffold143843	?	scaffold_9	89214382	89280888
Scaffold41683	Scaffold104457	?	Scaffold64827	-1	scaffold_9	92102400	92276721
Scaffold45762	Scaffold11550	?	Scaffold22503	1	scaffold_9	92844837	93108657
Scaffold1092	Scaffold65707	1	Scaffold61541	1	scaffold_9	94795906	96834422
