points (x=0.02047148, y=	0.6109328, col="red", pch=20)
points (x=0.03874574, y=	0.03570145, col="red", pch=20)
points (x=0.05858438, y=	0.9293965, col="red", pch=20)
points (x=0.08172838, y=	0.05031959, col="red", pch=20)
points (x=0.09007328, y=	0.2221865, col="red", pch=20)
points (x=0.113694	0.1114834, col="red", pch=20)
points (x=0.113694, y=	0.1114834, col="red", pch=20)
points (x=0.08172838, y=	0.05031959, col="white", pch=20)
points (x=0.1846912, y=	0.01905313, col="white", pch=20)
points (x=0.1846912, y=	0.01905313, col="red", pch=20)
points (x=0.3032477, y=	0.07972691, col="red", pch=20)
points (x=0.5531945, y=	0.306635, col="red", pch=20)
points (x=0.02047148, y= 0.61 col="red", pch=20)
points (x=0.02047148, y= 0.61, col="yellow", pch=20)
points (x=0.02047148, y= 0.61, col="red", pch=20)
points (x=0.05858438, y=0.9293965, col="white", pch=20)
hist (x=KaKs$V5)
hist
hist (x=KaKs$V5, xlim = range (0,1))
hist (x=KaKs$V5, xlim = range (0,1), counts = 0.1)
hist (x=KaKs$V5, xlim = range (0,1), counts = (0 1))
hist (x=KaKs$V5, xlim = range (0,1), counts = (0, 1))
hist (x=KaKs$V5, xlim = range c(0,1))
bins=seq(0,1,by=0.5)
hist (x=KaKs$V5, xlim = range c(bin)
hist (x=KaKs$V5, breaks = bins
)
bins=seq(0,1,by=0.01)
hist (x=KaKs$V5, breaks = bins)
hist (x=KaKs$V2, breaks = bins)
hist (x=KaKs$V2)
bins=seq(0,10,by=0.01)
hist (x=KaKs$V2, breaks = bins)
hist (x=KaKs$V2, breaks = bins, xlim = 1)
hist (x=KaKs$V2, breaks = bins, xlim = (0,1))
hist (x=KaKs$V2, breaks = bins, xlim = (0 1))
hist (x=KaKs$V2, breaks = bins, xlim = range(0 1))
hist (x=KaKs$V2, breaks = bins, xlim = range c(0 1))
?hist
hist (x=KaKs$V2, breaks = bins, xlim = 0 1))
hist (x=KaKs$V2, breaks = bins, xlim = 0 1)
hist (x=KaKs$V2, breaks = bins, xlim = 1)
hist (x=KaKs$V2, breaks = bins)
hist (x=KaKs$V2, breaks = bins, xlim = range(1))
hist (x=KaKs$V3, breaks = bins)
hist (x=KaKs$V2, breaks = bins, xlim = range(0, 1))
hist (x=KaKs$V3, breaks = bins, xlim = range(0, 1))
hist (x=KaKs$V2, breaks = bins, xlim = range(0, 1))
hist (x=KaKs$V2, breaks = bins, xlim = range(0, 1), xlab = "Conserved gene Ks", ylab = "Frequency", main = "Ks between Conserved Laevis gene and Tropicalis ortholog ")
hist (x=KaKs$V2, breaks = bins, xlim = range(0, 1), xlab = "Conserved gene Ks", ylab = "Frequency", main = "Ks between conserved Laevis gene and Tropicalis ortholog ")
hist (x=KaKs$V1, breaks = bins, xlim = range(0, 1), xlab = "Conserved gene Ks", ylab = "Frequency", main = "Ks between conserved Laevis gene and Tropicalis ortholog ")
hist (x=KaKs$V3, breaks = bins, xlim = range(0, 1), xlab = "Conserved gene Ks", ylab = "Frequency", main = "Ks between conserved Laevis gene and Tropicalis ortholog ")
hist (x=KaKs$V4, breaks = bins, xlim = range(0, 1), xlab = "Conserved gene Ks", ylab = "Frequency", main = "Ks between conserved Laevis gene and Tropicalis ortholog ")
hist (x=KaKs$V5, breaks = bins, xlim = range(0, 1), xlab = "Conserved gene Ks", ylab = "Frequency", main = "Ks between conserved Laevis gene and Tropicalis ortholog ")
hist (x=KaKs$V2, breaks = bins, xlim = range(0, 1), xlab = "Conserved gene Ks", ylab = "Frequency", main = "Ks between conserved Laevis gene and Tropicalis ortholog ")
hist (x=KaKs$V3, breaks = bins, xlim = range(0, 1), xlab = "Conserved gene Ks", ylab = "Frequency", main = "Ks between conserved Laevis gene and Tropicalis ortholog ")
hist (x=KaKs$V4, breaks = bins, xlim = range(0, 1), xlab = "Conserved gene Ks", ylab = "Frequency", main = "Ks between conserved Laevis gene and Tropicalis ortholog ")
hist (x=KaKs$V5, breaks = bins, xlim = range(0, 1), xlab = "Conserved gene Ks", ylab = "Frequency", main = "Ks between conserved Laevis gene and Tropicalis ortholog ")
hist (x=KaKs$V3, breaks = bins, xlim = range(0, 1), xlab = "Conserved gene Ks", ylab = "Frequency", main = "Ks between conserved Laevis gene and Tropicalis ortholog ")
hist (x=KaKs$V2, breaks = bins, xlim = range(0, 1), xlab = "Conserved gene Ks", ylab = "Frequency", main = "Ks between conserved Laevis gene and Tropicalis ortholog ")
median(KaKs)
median(KaKs$V2)
median(KaKs$V3)
count (KaKs$V2)
count(KaKs$V2)
freq(KaKs$V2)
conserved <- read.table(KaKsconserved)
conserved <- read.table("KaKsconserved")
hist (x=KaKsconserved$V2, breaks = bins, xlim = range(0, 1))
hist (x=conserved$V2, breaks = bins, xlim = range(0, 1))
hist (x=conserved$V3, breaks = bins, xlim = range(0, 1))
hist (x=conserved$V1, breaks = bins, xlim = range(0, 1))
hist (x=conserved$V2, breaks = bins, xlim = range(0, 1))
median(conserved$V3)
median(conserved$V2)
median(conserved$V3)
mean(conserved$V3)
hist (x=conserved$V3, breaks = bins, xlim = range(0, 1))
median (conserved$V3)
hist (x=conserved$V3)
hist (x=conserved$V3, breaks = bins, xlim = range(0, 1))
cons <- read.table(cons)
cons <- read.table("cons")
hist (x= 0.13655060.50409720.19322510.23319540.30339570.31157590.21874310.12768810.19841380.21298510.19719870.28719710.2532540.27222370.43312660.52007360.21921640.9979390.33923670.21193550.31052460.14645330.11354550.28057470.24147590.16407980.23854680.23492320.2818380.17725360.23297560.23258170.17226060.56970820.33143920.64163240.35906940.15449150.45725420.27513480.26719040.22065320.069951130.21237730.20295120.3832710.16482320.27566410.358261.1826690.25039390.17336720.23265380.38502140.37772480.2177080.36563880.3830350.32955760.24278331.4512220.29989810.43819490.3138250.23773810.29584580.22888420.25555550.3584650.12661110.24284930.20580110.28778190.31736290.32653570.35364840.10360110.18712130.21221110.14579880.28834890.96413850.21192570.26069320.34711920.3790210.19686320.31299380.33798990.31972350.35812270.091762560.3419580.2390820.51884290.24838680.1497410.26354420.2140170.16040590.52435490.30191810.233852
60.18577770.064095440.2230150.15886680.226720.66298220.37461920.26810480.12318140.26163970.22156640.16731720.27712140.13647160.15553680.24439160.29458870.25392940.28820040.16039170.23041510.25301380.34027560.18181240.30131910.50427020.17155010.23210360.28181380.24577050.2605090.19253770.32709570.48781870.18767720.39557690.18533310.42907760.22092040.29542530.34589211.0149360.31464110.20471280.18165490.27161880.19775819.9999990.15907050.23380820.2273530.24546530.23741020.35194670.27014310.24774810.25897550.27681260.30825940.28768910.26897290.23636640.17992270.29266030.27190050.34001530.34164590.42514650.2681610.32798122.658980.29857990.18840050.20618120.41440520.17783760.404220.29614920.26390.26049160.35274080.23252040.21334180.63135120.21887480.25810250.41183690.2630540.77050640.2800660.27313960.31450250.20412340.25994890.34274430.14534360.20582640.96694180.30949220.22829740.21839190.26186370.19712380.1124
3130.31919160.21775550.16083920.3084790.30248220.24783450.27848020.58519190.22619590.33221111.8657590.17883460.1581260.18650920.76709740.19334710.21079680.23513410.21596420.19446520.15784840.20795550.32774390.34670830.37817660.19759990.28223930.18757720.24856490.20903630.2721031.3215350.15943650.22751120.2967350.37429220.33298190.3045210.25276220.29258240.28777350.18684110.21265250.23199960.20765420.30047030.26600650.27327271.1038180.23906010.25916930.24997880.26667010.30040290.5237950.24262870.23008613.3632230.1286860.31187820.27163040.38208840.49269410.22844910.28558130.18009830.6231370.38327350.15509170.25887050.58881160.22673039.9999990.4310720.6028370.30500850.24256770.20491840.24968391.34680.24563250.31115280.175380.1004330.22333940.28460060.51750920.22773190.26957550.093997960.30963540.13749840.2679690.51534161.3417310.20882780.32772720.29221120.19360710.18868260.31408220.30464590.12577380.2018835
0.23915720.33582790.35644420.81621620.20590710.24251160.2388670.32537070.19319320.70697080.4493680.54866122.4317570.25979480.39513880.24635810.16601390.25691960.18780610.18221410.21774390.15920620.2521280.23241370.24492370.22863740.42094720.11703930.36722770.31215640.2564930.25088980.33923360.24970630.15636460.18235360.20667670.31306710.25125450.15246040.27273490.21564930.15129560.2501480.28486270.23653560.20170610.07248310.17603020.29383410.22074620.17828560.2068740.2257480.3661230.17571370.16036970.11824230.34581850.17458240.27030930.35397010.40660060.28491390.31864420.18847990.20799480.28611060.22792190.2122140.25568950.47713390.3370760.17227170.23244150.19713470.20002950.23507470.2813150.25977960.2445960.52570810.38970740.35576380.26552470.49971660.17063980.26432980.2799890.085888210.32869690.24417710.26814370.21071340.35010110.32758190.31211720.24442540.32265380.26081250.31135050.18793370.28333340.208
75480.26223770.22830910.25085560.21107810.41660740.16515640.24070150.26266030.40523320.32750760.19956990.35081310.19302910.26026790.17909910.32414320.23372110.25613670.28888570.21172240.30006270.30600960.29809340.32986030.20113880.2482740.201310.19916590.23652520.15171580.23104190.33734580.26400690.29643910.26172360.25312390.2165510.2119420.4703910.2294030.22296660.21094120.2234310.31214710.1737370.53196750.30021420.26467340.27124690.3133290.23501360.33756060.351440.29487270.2434510.31718810.30760750.17742280.20556350.27656970.27277030.22023270.2423410.12641520.20252060.32950710.31325850.14491750.20998170.2468310.26634050.23299220.25427120.24676390.38047110.27442040.33710580.32143650.38355890.23564690.31877190.15503950.16879660.36382990.4205050.32604760.3245060.28718310.19471590.24069960.30012740.23743230.31650570.28924620.22697310.23646210.34099470.21926430.14868910.38704490.26213540.37860010.25945120.29
386960.26753270.36279940.27951670.18220480.27244070.22960520.19817160.25076990.27384010.1602460.34872550.2769250.40237450.21469830.36936080.23076090.42192510.26753550.17574750.31778140.52779020.30985180.31562750.3727810.32029730.25158580.24999040.29406450.29565170.28367920.23077690.2466180.49554650.4284720.23354770.42220640.29497840.25873060.21521860.27819430.27645020.30460180.2214010.21430750.3368190.32222180.4693340.23247580.27247650.22347010.25354450.21773860.3793770.4093380.3049790.32368320.24356650.50463310.32565680.48140380.34832850.34539030.23553570.37349610.32800750.50325570.31497540.32337810.20345340.22866030.4310040.34664170.41224230.24720740.29648020.63885210.25375210.37655630.35407330.31247660.16409940.2500850.45402540.35164230.33305480.41737080.36393910.27204420.34809030.22131130.15769340.48559640.13776060.26214440.43640350.44359530.29155930.32092750.32652270.41960990.4391920.33666330.451510.
33388550.22981860.46043270.22262570.37938390.32101920.21596190.79351190.40666180.22420090.6189870.29087180.43456510.46877910.24834840.35075770.41800740.51501170.63952690.27078430.40397280.42553790.18355420.30969080.55331420.41093510.49446480.52426620.54092940.49484890.50268780.44945930.3980760.52218360.58193840.70085420.31274670.36481170.42534580.63951970.73089950.81327670.6651040.67560380.72042290.9142311.0808920.89385610.89163660.77847820.90803969.9999991.6394739.9999990.096504040.35944530.1539420.27693980.27194130.29383770.24702960.45926050.30922420.23085620.12480510.29064040.26591610.30931570.41722640.44477020.24865491.5620550.33873060.23312780.34668120.31539320.25959940.28666710.2384730.2004390.23293460.3083980.23686930.15677640.2350620.1697320.194030.27303190.29278850.22227170.44749320.12990530.40999660.17606360.3717350.18646360.062435960.19917480.19984860.39188880.14288820.31565680.32820780.6584737
0.31103690.25949750.23265380.44224460.36515630.23326260.3781020.52066680.30100650.31231220.51023840.19804920.44380420.2882470.2479520.3110770.23795520.25590660.38886950.12448510.35171570.25868470.57377460.30377370.32252030.31459360.051782570.1294190.2533540.16937670.22153410.70496790.18842840.29003210.34711920.16558020.2013630.27485450.32644590.28568910.44421780.084899370.35881660.29351480.44768270.22634080.12730690.37317570.16272380.15078170.6636420.2989490.16514740.19289830.080961510.28260630.15559890.25435850.29063220.75042240.33234770.14883640.16834840.22897190.17152860.31254980.15296060.17812180.31386559.9999990.45180980.25695020.1637041.1832650.30966420.36836820.22030790.33742260.54119540.22332470.29989060.28839060.25139710.2204340.73587270.26853060.25096820.22101910.33058170.19729810.55549380.30866530.33876120.4340431.190990.25162480.22968120.17773870.21396640.27765960.7313240.19699630.29822261.1963
210.34102980.64219120.30734770.1515930.26838120.28793240.26567590.34911540.31978540.27616170.32965950.21032010.27637290.26338940.35946370.36556530.31607390.37667040.3258321.022180.25723740.2881840.1956290.53191810.17554860.29657620.29713870.24971940.26712030.35301710.18092010.24687950.32364430.17965960.2611320.43908340.27242660.305370.27492210.24337010.3181070.23802650.28338510.27310640.14940410.22117770.36308890.31115370.25705930.87492850.23679270.21930040.11702390.2849640.23321960.88372950.2710030.30817580.23838570.2501480.58646610.21186820.2513460.19065520.18029080.20093550.20886640.44176310.20700460.23231790.095416450.31176890.22715170.26627450.21163550.23710240.30886950.60755360.23270760.29479390.3557530.27658830.17787090.37391620.31367740.17136460.40817010.34706980.34145070.3287238NA0.2738219NA0.33762550.20678350.26148350.25016940.24691920.34450510.28432160.2628311.2942280.18501390.18729230.3503296
0.78848880.27665940.46080980.17829680.32335060.41353480.14886120.30746720.25214050.42514480.92185930.4613620.55143240.18354262.1046980.42794940.15761470.25014420.5229720.59589959.9999990.46024050.36601130.81755830.17503880.19870740.21096330.228420.2670740.35379550.166646NA0.17838940.22003480.50425650.33529410.31022460.1042160.30095940.20253020.15660520.22509761.121780.17850840.3018810.37761460.16333990.21642220.37817890.32906030.2261490.21547720.39463280.36395390.31690511.1496760.22678070.18816250.25653210.24399480.29128190.59921030.25008920.54771020.2740680.28129080.3667779)
hist (x=KaKs$V2, breaks = bins, xlim = range(0, 1), xlab = "Conserved gene Ks", ylab = "Frequency", main = "Ks between conserved Laevis gene and Tropicalis ortholog ")
hist (x=conserved$V4 conserved$V5, breaks = bins, xlim = range(0, 1), xlab = "Conserved gene Ks", ylab = "Frequency", main = "Ks between conserved Laevis gene and Tropicalis ortholog ")
hist (x=conserved$V2, breaks = bins, xlim = range(0, 1), xlab = "Conserved gene Ks", ylab = "Frequency", main = "Ks between conserved Laevis gene and Tropicalis ortholog ")
hist (x=conserved$V2, breaks = bins, xlim = range(0, 1), xlab = "Conserved gene Ks", ylab = "Frequency", main = "Ks between Laevis paralog and Tropicalis ortholog ")
hist (x=conserved$V3, breaks = bins, xlim = range(0, 1), xlab = "Conserved gene Ks", ylab = "Frequency", main = "Ks between Laevis paralog and Tropicalis ortholog ")
hist (x=conserved$V2, breaks = bins, xlim = range(0, 1), xlab = "Conserved gene Ks", ylab = "Frequency", main = "Ks between Laevis paralog and Tropicalis ortholog ")
total <- merge(data conserved$V2, data conserved$V3)
total <- merge(conserved$V2, conserved$V3)
hist (x=total, breaks = bins, xlim = range(0, 1), xlab = "Conserved gene Ks", ylab = "Frequency", main = "Ks between Laevis paralog and Tropicalis ortholog ")
hist (x=total$V1, breaks = bins, xlim = range(0, 1), xlab = "Conserved gene Ks", ylab = "Frequency", main = "Ks between Laevis paralog and Tropicalis ortholog ")
hist (x=conserved$V2, breaks = bins, xlim = range(0, 1), xlab = "Conserved gene Ks", ylab = "Frequency", main = "Ks between Laevis paralog and Tropicalis ortholog ")
hist (x=conserved$V3, breaks = bins, xlim = range(0, 1), xlab = "Conserved gene Ks", ylab = "Frequency", main = "Ks between Laevis paralog and Tropicalis ortholog ")
total <- rbind(conserved$V2, conserved$V3)
hist (x=total$V1, breaks = bins, xlim = range(0, 1), xlab = "Conserved gene Ks", ylab = "Frequency", main = "Ks between Laevis paralog and Tropicalis ortholog ")
hist (x=total, breaks = bins, xlim = range(0, 1), xlab = "Conserved gene Ks", ylab = "Frequency", main = "Ks between Laevis paralog and Tropicalis ortholog ")
median (total)
hist (x=conserved$V3, breaks = bins, xlim = range(0, 1), xlab = "Conserved gene Ks", ylab = "Frequency", main = "Ks between Laevis paralog and Tropicalis ortholog ")
hist (x=conserved$V2, breaks = bins, xlim = range(0, 1), xlab = "Conserved gene Ks", ylab = "Frequency", main = "Ks between Laevis paralog and Tropicalis ortholog ")
hist (x=total, breaks = bins, xlim = range(0, 1), xlab = "Conserved gene Ks", ylab = "Frequency", main = "Ks between Laevis paralogs and Tropicalis ortholog ")
hist (x=conserved$V4, breaks = bins, xlim = range(0, 1), xlab = "Conserved gene Ks", ylab = "Frequency", main = "Ks between Laevis paralog and Tropicalis ortholog ")
hist (x=conserved$V3, breaks = bins, xlim = range(0, 1), xlab = "Conserved gene Ks", ylab = "Frequency", main = "Ks between Laevis paralog and Tropicalis ortholog ")
hist (x=KaKs$V3, breaks = bins, xlim = range(0, 1), xlab = "Conserved gene Ks", ylab = "Frequency", main = "Ks between Laevis paralog and Tropicalis ortholog ")
hist (x=KaKs$V2, breaks = bins, xlim = range(0, 1), xlab = "Conserved gene Ks", ylab = "Frequency", main = "Ks between Laevis paralog and Tropicalis ortholog ")
hist (x=conserved$V3, breaks = bins, xlim = range(0, 1), xlab = "Conserved gene Ks", ylab = "Frequency", main = "Ks between Laevis paralog and Tropicalis ortholog ")
hist (x=conserved$V2, breaks = bins, xlim = range(0, 1), xlab = "Conserved gene Ks", ylab = "Frequency", main = "Ks between Laevis paralog and Tropicalis ortholog ")
hist (x=conserved$V3, breaks = bins, xlim = range(0, 1), xlab = "Conserved gene Ks", ylab = "Frequency", main = "Ks between Laevis paralog and Tropicalis ortholog ")
hist (x=conserved$V2, breaks = bins, xlim = range(0, 1), xlab = "Conserved gene Ks", ylab = "Frequency", main = "Ks between Laevis paralog and Tropicalis ortholog ")
median (x=conserved$V2)
median (x=conserved$V3)
hist (x=KaKs$V2, breaks = bins, xlim = range(0, 1), xlab = "Conserved gene Ks", ylab = "Frequency", main = "Ks between Laevis paralog and Tropicalis ortholog ")
hist (x=KaKs$V2, breaks = bins, xlim = range(0, 1), xlab = "Conserved gene Ks", ylab = "Frequency", main = "Ks between conserved Laevis and Tropicalis ortholog ")
hist (x=conserved$V2, breaks = bins, xlim = range(0, 1), xlab = "Conserved gene Ks", ylab = "Frequency", main = "Ks between Laevis paralog and Tropicalis ortholog ")
hist (x=conserved$V2, breaks = bins, xlim = range(0, 1), xlab = "Conserved gene Ks", ylab = "Frequency", main = "Ks between Laevis paralog one and Tropicalis ortholog ")
hist (x=conserved$V3, breaks = bins, xlim = range(0, 1), xlab = "Conserved gene Ks", ylab = "Frequency", main = "Ks between Laevis paralog two and Tropicalis ortholog ")
hist (x=conserved$V3, breaks = bins, xlim = range(0, 1), xlab = "Conserved gene Ks", ylab = "Frequency", main = "Ks between Laevis paralog (A) and Tropicalis ortholog ")
hist (x=conserved$V2, breaks = bins, xlim = range(0, 1), xlab = "Conserved gene Ks", ylab = "Frequency", main = "Ks between Laevis paralog (B) and Tropicalis ortholog ")
hist (x=total, breaks = bins, xlim = range(0, 1), xlab = "Conserved gene Ks", ylab = "Frequency", main = "Ks between Laevis paralogs (A and B) and Tropicalis ortholog ")
abline(a =0, b =1)
abline(a =.3, b =0)
abline(a =0, b=0, y=0.4)
plot (x=KaKs$V5, y=KaKs$V6, xlab = "Conserved gene Ka", ylab = "Pseudogene Ka", main = "Conserved gene Ka vs Pseudogene Ka for Ks < 0.5" )
points (x=0.05858438, y=0.9293965, col="red", pch=20)
points (x=0.05858438, y=0.9293965, col="white", pch=20)
points (x=0.02047148,	y=0.6109328, col="red", pch=20)
points (x=0.01315414, y=	0.1396813, col="red", pch=20)
points (x=0.02047148, y=	0.6109328, col="red", pch=20)
points (x=0.03874574, y=	0.03570145, col="red", pch=20)
points (x=0.05858438, y=	0.9293965, col="red", pch=20)
points (x=0.05858438, y=	0.9293965, col="white", pch=20)
points (x=0.08172838, y=	0.05031959, col="red", pch=20)
points (x=0.08172838, y=	0.05031959, col="white", pch=20)
points (x=0.09007328, y=	0.2221865, col="red", pch=20)
points (x=0.113694	0.1114834, col="red", pch=20)
points (x=0.113694, y=	0.1114834, col="red", pch=20)
points (x=0.3032477, y=	0.07972691, col="red", pch=20)
points (x=0.1846912, y=	0.01905313, col="red", pch=20)
points (x=0.5531945, y=	0.306635, col="red", pch=20)
abline(a=0, b=1)
abline(a=0, b=1, col= "red")
KaKs <- read.table("KaKs")
plot (x=KaKs$V5, y=KaKs$V6, xlab = "Conserved gene Ka", ylab = "Pseudogene Ka", main = "Conserved gene Ka vs Pseudogene Ka for Ks < 0.5" )
install.packages("fields")
install.packages("maps")
s <- interp (x=KaKs$V5, y= KaKs$V6, z = KaKs$V2)
library (fields)
library (akima)
s <- interp (x=KaKs$V5, y= KaKs$V6, z = KaKs$V2)
image.plot(s)
s <- interp (x=KaKs$V5, y= KaKs$V6, z = KaKs$V3)
image.plot(s)
s <- interp (x=KaKs$V5, y= KaKs$V6, z = KaKs$V4)
image.plot(s)
s <- interp (x=KaKs$V5, y= KaKs$V6, z = KaKs$V3)
image.plot(s)
plot (x=KaKs$V5, y=KaKs$V6, xlab = "Conserved gene Ka", ylab = "Pseudogene Ka", main = "Conserved gene Ka vs Pseudogene Ka for Ks < 0.5" )
image.plot(s)
dens <- kde2d(d$X, d$Y, h=75, n=50)  #overrode default bandwidth#
filled.contour(dens)
install.package(MASS)
install.packages("mass")
install.packages("MASS")
conserved  <- read.table (KaKsconserved)
conserved  <- read.table(KaKsconserved)
conserved  <- read.table("KaKsconserved")
plot (x=KaKs$V5, y=KaKs$V6, xlab = "Conserved gene Ka", ylab = "Pseudogene Ka", main = "Conserved gene Ka vs Pseudogene Ka for Ks < 0.5" )
bins=seq(0,1,by=0.01)
plot (x=KaKs$V5, y=KaKs$V6, xlab = "Conserved gene Ka", ylab = "Pseudogene Ka", main = "Conserved gene Ka vs Pseudogene Ka for Ks < 0.5" )
plot (x=KaKs$V5, y=KaKs$V6, xlab = "Conserved gene Ka", ylab = "Pseudogene Ka", main = "Conserved gene Ka vs Pseudogene Ka for Ks < 0.5" )
s <- interp (x=KaKs$V5, y= KaKs$V6, z = KaKs$V3)
image.plot(s)
dens <- kde2d(d$X, d$Y, h=75, n=50)  #overrode default bandwidth#
filled.contour(dens)
dens <- kde2d(d$X, d$Y, h=75, n=50)
x <- c(KaKs$V5)
y <- c(KaKs$V6)
z <- rnorm(20)
library(fields)
library(akima)
s <- interp (x,y,z)
z <- c(KaKs$V3)
s <- interp (x,y,z)
image.plot(s)
image.plot(s)
z <- (KaKs$V3)
image.plot(s)
y <- (KaKs$V6)
x <- (KaKs$V5)
image.plot(s)
library(fields)
library(akima)
s <- interp (x,y,z)
image.plot(s)
plot (x=KaKs$V5, y=KaKs$V6, xlab = "Conserved gene Ka", ylab = "Pseudogene Ka", main = "Conserved gene Ka vs Pseudogene Ka for Ks < 0.5" )
shades= c(seq(-1,0.8,length=64),seq(0.8,1.2,length=64),seq(1.2,3,length=64))
heatmap(x=KaKs$V5)
image.plot (s, x=KaKs$V5, y=KaKs$V6, xlab = "Conserved gene Ka", ylab = "Pseudogene Ka", main = "Conserved gene Ka vs Pseudogene Ka for Ks < 0.5" )
plot (x=KaKs$V5, y=KaKs$V6, xlab = "Conserved gene Ka", ylab = "Pseudogene Ka", main = "Conserved gene Ka vs Pseudogene Ka for Ks < 0.5" image.plot(s))
plot (x=KaKs$V5, y=KaKs$V6, xlab = "Conserved gene Ka", ylab = "Pseudogene Ka", main = "Conserved gene Ka vs Pseudogene Ka for Ks < 0.5" image.plot(s))
help heatmap
heatmap(help)
library(MASS)
require(MASS)
dens <- kde2d(d$X, d$Y, h=75, n=50)
dens <- kde2d( $X, $Y, h=75, n=50)
dens <- kde2d( KaKs$V5, KaKs$V6, h=75, n=50)
filled.contour(dens)
image.plot(s)
points (x=KaKs$V5, y=KaKs$V6, xlab = "Conserved gene Ka", ylab = "Pseudogene Ka", main = "Conserved gene Ka vs Pseudogene Ka for Ks < 0.5" )
image.plot(s)
image.plot(s, legend.shrink)
new <- read.table(NewKaKs)
new <- read.table("NewKaKs")
points (x=new$V5, y=new$V6, xlab = "Conserved gene Ka", ylab = "Pseudogene Ka", main = "Conserved gene Ka vs Pseudogene Ka for Ks < 0.5" )
plot (x=new$V5, y=new$V6, xlab = "Conserved gene Ka", ylab = "Pseudogene Ka", main = "Conserved gene Ka vs Pseudogene Ka for Ks < 0.5" )
x <- c(new$V5)
y <- c(new$V6)
z <- c(new$V3)
library(fields)
library(akima)
s <- interp (x,y,z)
image.plot(s)
s <- interp (x=new$V5, y= new$V6, z = new$V2)
s <- interp (x=new$V5, y= new$V6, z = new$V3)
image.plot(s)
library(fields)
library(akima)
image.plot(s)
plot (x=new$V5, y=new$V6, xlab = "Conserved gene Ka", ylab = "Pseudogene Ka", main = "Conserved gene Ka vs Pseudogene Ka for Ks < 0.5" )
image.plot(s)
points (x=new$V5, y=new$V6, xlab = "Conserved gene Ka", ylab = "Pseudogene Ka", main = "Conserved gene Ka vs Pseudogene Ka for Ks < 0.5" )
new <- read.table("NewKaKs")
plot (x=new$V5, y=new$V6, xlab = "Conserved gene Ka", ylab = "Pseudogene Ka", main = "Conserved gene Ka vs Pseudogene Ka for Ks < 0.5" )
s <- interp (x=new$V5, y= new$V6, z = new$V2)
image.plot(s)
s <- interp (x=new$V5, y= new$V6, z = new$V3)
image.plot(s)
points (x=new$V5, y=new$V6, xlab = "Conserved gene Ka", ylab = "Pseudogene Ka", main = "Conserved gene Ka vs Pseudogene Ka for Ks < 0.5" )
image.plot(s,xlab = "Conserved gene Ka", ylab = "Pseudogene Ka", main = "Conserved gene Ka vs Pseudogene Ka for Ks < 0.5"  )
points (x=new$V5, y=new$V6, xlab = "Conserved gene Ka", ylab = "Pseudogene Ka", main = "Conserved gene Ka vs Pseudogene Ka for Ks < 0.5" )
