 -31732 
 26435 
 219549 
 260674 
 -12471 
 -40902 
 -53469 
 -14671 
 -66144 
 -19530 
 -41815 
 2667 
 -8418 
 13916 
 27188 
 73776 
 1432 
 156705 
 22982 
 49376 
 -51269 
 -73123 
 -7892 
 140708 
 327117 
 -41354 
 102508 
 -36082 
 -123328551 
 -52663 
 587993 
 -4962 
 34381 
 -345982 
 214580 
 2226 
 310773 
 -2876 
 -38736 
 -2917 
 45515 
 15427 
 230262 
 -63188 
 -246366 
 305573 
 -25127 
 311518 
 139754 
 -20187 
 -3404 
 186100 
 -42263 
 41141 
 -12049 
 -384620 
 -341953 
 275897 
 -24485 
 -35583 
 -3032 
 16300 
 -127691 
 -28918 
 -15833 
 426005 
 51332 
 43147 
 -11283 
 -3757 
 56761 
 -31328 
 -603783 
 -13754 
 -15066 
 247313 
 -46766099 
 53723 
 57879 
 -10787 
 -3318 
 80520 
 144013 
 39203 
 175653 
 636345 
 41764 
 98290 
 18711 
 193646 
 16318 
 148832 
 -21 
 -26853 
 -7278297 
 205008 
 -69945 
 -14209 
 71980722 
 8526 
 18074 
 24864 
 -21816 
 272700 
 104499 
 18600 
 -1005 
 -23434 
 53512 
 -20757 
 310982 
 -31774 
 -64247 
 -5667 
 888491 
 346797 
 -69993 
 -5628 
 58618 
 4028 
 44580 
 70033 
 -12828 
 -43876 
 28716 
 46872 
 -26631 
 525613 
 111930 
 512663 
 -12435 
 -1077883 
 22247 
 -29570 
 -30579 
 -2960 
 30296 
 -30067 
 -16063 
 -26502 
 -36401 
 55893 
 -39722 
 -69715 
 6041 
 -16470 
 -44117 
 -29531 
 -479363 
 148510 
 49274 
 -230797 
 37225 
 1108327 
 -3097 
 19590 
 256667 
 94409 
 -41946 
 -5592 
 -23977 
 45427 
 49513 
 -68153 
 -8604 
 -6016 
 -16249 
 -18768 
 89886 
 44663 
 -34504 
 12816 
 -13859 
 1233460 
 16176 
 -14848 
 -702 
 -8136 
 7554 
 -93734 
 177734 
 -96608 
 37742 
 94569 
 -23651 
 -2047 
 62254 
 8473 
 102512 
 -113964665 
 16733 
 -15480 
 55240 
 308057 
 494886 
 -84673 
 13872 
 30998 
 436348 
 26305 
 18487 
 370828 
 46143 
 38413 
 52359 
 19337698 
 204736 
 413431 
 5294 
 25769 
 15742 
 -31228095 
 -49497 
 -148705 
 -24405 
 -14631 
 -7532 
 83930 
 -27526 
 108639 
 525857 
 -25954 
 53044 
 -137155 
 428862 
 -30007 
 106276552 
 -37593 
 -18973 
 -376139 
 247 
 -22234 
 77846 
 -5800 
 407306 
 64969 
 75790 
 -30427 
 -47696391 
 494949 
 -150027553 
 64920 
 1100206 
 419677 
 299384 
 -40458 
 286907 
 -9956 
 -16830 
 39832 
 82112 
 -6889 
 -5840962 
 -91529 
 -29266 
 -2578 
 82011 
 -33793 
 116857 
 -11901 
 47546 
 -449477 
 188491 
 -87975 
 -13531 
 42353 
 459559 
 48664 
 -3268 
 342580 
 -19212 
 -71013 
 -34157 
 32064 
 4512 
 -151201 
 -29024 
 249117 
 -1418 
 -43668 
 17734 
 -7638 
 -4372 
 -5603 
 115362 
 21335 
 786585 
 -4076 
 95974 
 -4676 
 -12146 
 47159 
 -31303 
 -5742 
 -36518 
 -12032 
 -4920 
 12681 
 232789 
 -27469 
 1955 
 306439 
 -1187 
 12342 
 -2451 
 -37292 
 -46392 
 -46350 
 18269 
 176642 
 -101419 
 17407 
 565020 
 -18228 
 48518 
 -1060 
 -27346 
 25532 
 -6160 
 -84060 
 49041 
 -3544055 
 49426 
 171135 
 -47888 
 -19015 
 -25368 
 -36386 
 44955 
 -31911 
 20955 
 -1146048 
 -24987 
 -25407 
 74052 
 -17414 
 885 
 -22239 
 30262 
 29238 
 14777 
 93720 
 8314 
 -720569 
 19071 
 -1480 
 59033 
 1225 
 3256 
 1274 
 436 
 94462 
 636828 
 19270 
 -21425 
 -9307 
 -18272 
 -36824966 
 -52268 
 52079922 
 7579 
 84972 
 110842 
 519195 
 -12034 
 -10985 
 -28937 
 -10381 
 16113 
 -7820 
 -26741 
 -10917 
 85268157 
 -8255 
 -40157 
 -39505 
 30722 
 3631 
 19432500 
 -37543 
 26446 
 -14526 
 187779 
 162057 
 379028 
 27119 
 248095 
 17341 
 32676 
 1665 
 -39710 
 191489 
 156698 
 7905 
 -455 
 53859 
 44602 
 24765 
 1629 
 -40321 
 -24301 
 -126843 
 42150 
 510409 
 37402 
 343208 
 -71895 
 -47965 
 -142702 
 -94733 
 4590 
 -6284 
 25323 
 -32284 
 -136131 
 -239 
 39142 
 25285 
 -5556 
 271438 
 -56449 
 39377 
 112457 
 -76424 
 20995 
 137953 
 84948 
 -23344 
 -97684640 
 -2169 
 338553 
 -8598 
 32566 
 -11819 
 17350 
